R for Biologists: a powerful statistical tool in research
…
#https://cran.r-project.org/web/packages/infer/infer.pdf
#https://moderndive.github.io/moderndive_labs/static/previous_versions/v0.5.0/9-confidence-intervals.html#the-infer-package-for-statistical-inference

#install.packages("infer")
library(infer)

bootstrap_distribution<-Mydata1 %>%              
specify(response = weight)  %>%     #weight as variable of interest
generate(reps = 1000, type = "bootstrap") %>%   # generate bootstrap sample. reps: the number of resamples to generate.
calculate(stat = "mean")        # Calculate mean of each bootstrap sample

bootstrap_distribution

## # A tibble: 1,000 x 2
##    replicate  stat
##        <int> <dbl>
##  1         1  5.02
##  2         2  5.06
##  3         3  4.73
##  4         4  5.26
##  5         5  4.80
##  6         6  5.15
##  7         7  4.97
##  8         8  4.78
##  9         9  4.92
## 10        10  4.92
## #  with 990 more rows
…
