R for Biologists: a powerful statistical tool in research
…
#https://cran.r-project.org/web/packages/infer/infer.pdf
#https://moderndive.github.io/moderndive_labs/static/previous_versions/v0.5.0/9-confidence-intervals.html#the-infer-package-for-statistical-inference

#install.packages("infer")
library(infer)

bootstrap_distribution<-Mydata1 %>%              
specify(response = weight)  %>%     #weight as variable of interest
generate(reps = 1000, type = "bootstrap") %>%   # generate bootstrap sample. reps: the number of resamples to generate.
calculate(stat = "mean")        # Calculate mean of each bootstrap sample

bootstrap_distribution

## # A tibble: 1,000 x 2
##    replicate  stat
##        <int> <dbl>
##  1         1  5.18
##  2         2  4.90
##  3         3  5.00
##  4         4  5.01
##  5         5  4.86
##  6         6  4.94
##  7         7  4.87
##  8         8  4.80
##  9         9  5.10
## 10        10  4.99
## #  with 990 more rows
…
