R for Biologists: a powerful statistical tool in research
…
#https://cran.r-project.org/web/packages/infer/infer.pdf
#https://moderndive.github.io/moderndive_labs/static/previous_versions/v0.5.0/9-confidence-intervals.html#the-infer-package-for-statistical-inference

#install.packages("infer")
library(infer)

bootstrap_distribution<-Mydata1 %>%              
specify(response = weight)  %>%     #weight as variable of interest
generate(reps = 1000, type = "bootstrap") %>%   # generate bootstrap sample. reps: the number of resamples to generate.
calculate(stat = "mean")        # Calculate mean of each bootstrap sample

bootstrap_distribution

## # A tibble: 1,000 x 2
##    replicate  stat
##        <int> <dbl>
##  1         1  4.94
##  2         2  4.91
##  3         3  4.99
##  4         4  5.02
##  5         5  5.02
##  6         6  5.11
##  7         7  5.08
##  8         8  5.20
##  9         9  4.98
## 10        10  4.93
## #  with 990 more rows
…
